{
  "prepare_queue": {
    "installed": [],
    "uninstalled": []
  },
  "config_munge": {
    "files": {}
  },
  "installed_plugins": {
    "cordova-plugin-qrscanner": {
      "PACKAGE_NAME": "com.mobilespot.pocpluginqrscanner"
    },
    "cordova-plugin-whitelist": {
      "PACKAGE_NAME": "com.mobilespot.pocpluginqrscanner"
    }
  },
  "dependent_plugins": {}
}